full_adder/sim/test_bench.vcd
$date
	Sat Dec 21 14:50:36 2024
$end
$version
	Icarus Verilog
$end
$timescale
	1ps
$end
$scope module test_bench $end
$var wire 1 ! sum $end
$var wire 1 " carry $end
$var reg 1 # a $end
$var reg 1 $ b $end
$var reg 1 % cin $end
$var integer 32 & i [31:0] $end
$scope function calc_expected $end
$var reg 1 ' a_val $end
$var reg 1 ( b_val $end
$var reg 1 ) cin_val $end
$upscope $end
$scope module dut $end
$var wire 1 # a $end
$var wire 1 $ b $end
$var wire 1 " carry $end
$var wire 1 % cin $end
$var wire 1 * sum1 $end
$var wire 1 ! sum $end
$var wire 1 + carry2 $end
$var wire 1 , carry1 $end
$scope module ha1 $end
$var wire 1 # a $end
$var wire 1 $ b $end
$var wire 1 , carry $end
$var wire 1 * sum $end
$upscope $end
$scope module ha2 $end
$var wire 1 * a $end
$var wire 1 % b $end
$var wire 1 + carry $end
$var wire 1 ! sum $end
$upscope $end
$upscope $end
$scope task check_result $end
$var reg 2 - expected_result [1:0] $end
$upscope $end
$upscope $end
$enddefinitions $end
$comment Show the parameter values. $end
$dumpall
$end
#0
$dumpvars
bx -
0,
1+
1*
x)
x(
x'
b0 &
1%
1$
0#
1"
0!
$end
#1000
b10 -
0'
1(
1)
#11000
1!
0+
0*
1,
1#
b1 &
#12000
b11 -
1'
#22000
0!
1+
1"
1*
0,
0$
b10 &
#23000
b10 -
0(
#33000
b11 &
#44000
b100 &
#55000
0"
1!
0+
0%
1$
0#
b101 &
#56000
b1 -
0'
1(
0)
#66000
0!
1"
0*
1,
1#
b110 &
#67000
b10 -
1'
#77000
1!
0"
1*
0,
0$
b111 &
#78000
b1 -
0(
#88000
1$
0#
b1000 &
#89000
0'
1(
#99000
1"
0*
1,
1%
1#
b1001 &
#100000
b11 -
1'
1)
#110000
0"
1*
0,
0%
0$
b1010 &
#111000
b1 -
0(
0)
#121000
0*
1%
0#
b1011 &
#122000
0'
1)
#132000
1"
0!
1+
1*
1$
b1100 &
#133000
b10 -
1(
#143000
1!
0+
0*
1,
1#
b1101 &
#144000
b11 -
1'
#154000
0"
0,
0$
0#
b1110 &
#155000
b1 -
0'
0(
#165000
1"
0!
1,
0%
1$
1#
b1111 &
#166000
b10 -
1'
1(
0)
#176000
0"
0,
0$
0#
b10000 &
#177000
b0 -
0'
0(
#187000
1!
1*
1$
b10001 &
#188000
b1 -
1(
#198000
1"
0!
1+
1%
b10010 &
#199000
b10 -
1)
#209000
0"
0+
0*
0%
0$
b10011 &
#210000
b0 -
0(
0)
#220000
1!
1%
b10100 &
#221000
b1 -
1)
#231000
1"
1,
1$
1#
b10101 &
#232000
b11 -
1'
1(
#242000
0"
1*
0,
0%
0$
b10110 &
#243000
b1 -
0(
0)
#253000
1"
0*
1,
1%
1$
b10111 &
#254000
b11 -
1(
1)
#264000
0"
0,
0$
0#
b11000 &
#265000
b1 -
0'
0(
#275000
1"
0!
1+
1*
1#
b11001 &
#276000
b10 -
1'
#286000
b11010 &
#297000
0+
0*
1,
0%
1$
b11011 &
#298000
1(
0)
#308000
b11100 &
#319000
0"
0,
0$
0#
b11101 &
#320000
b0 -
0'
0(
#330000
1"
1,
1$
1#
b11110 &
#331000
b10 -
1'
1(
#341000
1+
1*
0,
1%
0#
b11111 &
#342000
0'
1)
#352000
1!
0+
0*
1,
1#
b100000 &
#353000
b11 -
1'
#363000
0!
1+
1"
1*
0,
0#
b100001 &
#364000
b10 -
0'
#374000
0"
1!
0+
0%
0$
1#
b100010 &
#375000
b1 -
1'
0(
0)
#385000
0!
0*
0#
b100011 &
#386000
b0 -
0'
#396000
1!
1%
b100100 &
#397000
b1 -
1)
#407000
1"
1,
1$
1#
b100101 &
#408000
b11 -
1'
1(
#418000
0!
1+
1"
1*
0,
0$
b100110 &
#419000
b10 -
0(
#429000
0"
1!
0+
0%
b100111 &
#430000
b1 -
0)
#440000
0!
1"
0*
1,
1$
b101000 &
#441000
b10 -
1(
#451000
1!
1%
b101001 &
#452000
b11 -
1)
#462000
0"
1*
0,
0%
0$
b101010 &
#463000
b1 -
0(
0)
#473000
1$
0#
b101011 &
#474000
0'
1(
#484000
0*
1%
0$
b101100 &
#485000
0(
1)
#495000
1*
0%
1#
b101101 &
#496000
1'
0)
#506000
b101110 &
#517000
1$
0#
b101111 &
#518000
0'
1(
#528000
b110000 &
#539000
1"
0*
1,
1%
1#
b110001 &
#540000
b11 -
1'
1)
#550000
b110010 &
